<svg xmlns="http://www.w3.org/2000/svg" viewBox="0 0 489.67 115.82" style="width: 100%;">
  <path style="fill: rgb(26, 26, 26);" d="M683.92,465.34a6.15,6.15,0,1,1-4.39,1.8A6.11,6.11,0,0,1,683.92,465.34Zm-245.63,9.39h-7.44V491h7.44c6,0,9.78-2.74,9.78-8.13S444.31,474.73,438.29,474.73Zm45.07,0h-8.45v36.93h8.45c10.64,0,17.37-8.53,17.37-18.47S494,474.73,483.36,474.73Zm231.86,16.59c-6.34,0-10.25,4.93-10.25,10.72s3.91,10.72,10.25,10.72,10.25-4.93,10.25-10.72S721.55,491.32,715.22,491.32Zm-64.64,0c-6.34,0-10.17,4.61-10.17,10.72s3.84,10.72,10.17,10.72a10.27,10.27,0,0,0,8.84-5.17V496.48A10.26,10.26,0,0,0,650.58,491.32Zm38-7.83v37.09h-9.39V483.49ZM483.2,465.81c16,0,27.08,11.58,27.08,27.38s-11.11,27.39-27.08,27.39H465.52V465.81Zm-43.74,0c10.88,0,18.16,7,18.16,17.06,0,8.21-4.39,14.47-12.21,16.43l13.7,21.28h-11l-13-20.65h-4.3v20.65h-9.4V465.81ZM756.3,482.55a23.67,23.67,0,0,1,13.93,4.54l-4.7,6.89a17.19,17.19,0,0,0-9.23-3.21c-3.52,0-6.73,1.25-6.73,3.52s2.5,2.81,8.76,4.14c7.36,1.57,12.6,4,12.6,11.66,0,6.34-6.73,11.43-16.2,11.43A23.13,23.13,0,0,1,738,514.79l5.24-6.81s4.93,5.33,11.19,5.33c3.83,0,7-1.1,7-3.37,0-2.43-1.72-2.89-7.35-4.07-7.36-1.56-13.77-4.69-13.77-11.74C740.34,488.34,746.13,482.55,756.3,482.55Zm-41.08,0A19.49,19.49,0,1,1,695.42,502,19.45,19.45,0,0,1,715.22,482.55Zm-46.41-21.13v59.16h-8.68v-4.85a12.83,12.83,0,0,1-11.19,5.79c-9.63,0-18.08-8.06-18.08-19.48s8.46-19.49,18.08-19.49a13.25,13.25,0,0,1,10.48,4.85v-26Zm-67.37,22.07v21.44c0,5.48,2.58,7.83,7.35,7.83s7.36-4.54,7.36-4.54V483.49h9.39v37.09h-8.76v-5.4a13.28,13.28,0,0,1-11.12,6.34c-7.12,0-13.61-5.09-13.61-14v-24Zm-26.68-11v11H586v8.45H574.76v14.95c0,4.53,2.34,5.87,4.85,5.87a7.51,7.51,0,0,0,3.91-1.33L587,519.1a16.85,16.85,0,0,1-8.92,2.42c-7.2,0-12.67-5.24-12.67-13.14V491.94h-7.28v-8.45h7.28v-11Zm-39.44-7.59c11.42,0,17.84,8.68,17.84,8.68L546.67,480s-4.54-6.18-11.35-6.18c-4.7,0-8.38,2.9-8.38,6.57,0,4.38,3.62,6,10,8.4l1.81.68c8.37,3.13,15.34,6.89,15.34,16.82s-8.77,15.26-19.1,15.26c-13.69,0-20-11.19-20-11.19l7-5.94s4.7,8.21,13,8.21c4.7,0,9.55-1.88,9.55-6.34s-3.52-6.26-10-8.53c-8.06-2.81-17.14-7.2-17.14-17.37C517.4,472.62,524.28,464.87,535.32,464.87Z" transform="translate(-281.27 -433.56)"></path>
  <path style="fill: rgb(43, 75, 186);" d="M399.36,473.73c-2.64-15.39-9.95-32-22.25-37.66s-29.65-.6-47.39,5.12-35.85,12.06-43.66,25-5.4,32.41,2.49,47.43,21.18,25.67,35.62,31.26,30,6.18,42.5.8,21.9-16.81,27.62-29.56A72.19,72.19,0,0,0,399.36,473.73Z" transform="translate(-281.27 -433.56)"></path>
  <path style="fill: rgb(201, 208, 232);" d="M360.4,491.47a17.16,17.16,0,1,1,12.13-5A17.15,17.15,0,0,1,360.4,491.47Zm0,43a17.14,17.14,0,0,1-17.09-15.89v0c-1.4-18.79-8.32-25.73-27.09-27.23h0a17.15,17.15,0,1,1,18.44-18.35l0,0c1.4,18.79,8.31,25.74,27.09,27.23l0,0a17.14,17.14,0,0,1-1.35,34.23Z" transform="translate(-281.27 -433.56)"></path>
</svg>